{
  "workflowInfo": "SF000441",
  "steps": [
    {
      "id": "gettingStart",
      "title": "txt_get_started",
      "component": "GetStartedCustomDataLinkElements"
    },
    {
      "id": "changeInformation",
      "title": "txt_select_a_change",
      "component": "ChangeInformation",
      "dataApi": "createCustomDataLinkElementsWorkflowInstance"
    },
    {
      "id": "CustomDataLinkElements",
      "title": "txt_configure_parameters",
      "dataApi": "updateCustomDataLinkElementsWorkflowInstance",
      "component": "CustomDataLinkElements"
    },
    {
      "id": "reviewAndSubmit",
      "title": "txt_review_and_submit",
      "component": "Summary",
      "dataApi": "setupCustomDataLinkElementsWorkflow"
    }
  ]
}
