{
  "workflowInfo": "PL RT PC",
  "steps": [
    {
      "id": "gettingStart",
      "title": "txt_get_started",
      "component": "GetStartedDesignLoanOffers"
    },
    {
      "id": "changeInformation",
      "title": "txt_select_a_change",
      "component": "ChangeInformation",
      "dataApi": "createDesignLoanOffersWorkflowInstance"
    },
    {
      "id": "designLoanOffers",
      "title": "txt_configure_parameters",
      "dataApi": "updateDesignLoanOffersWorkflowInstance",
      "component": "DesignLoanOffers"
    },
    {
      "id": "reviewAndSubmit",
      "title": "txt_review_and_submit",
      "component": "Summary",
      "dataApi": "setupDesignLoanOffersWorkflow"
    }
  ]
}
