{
  "workflowInfo": "JFS, FLS ADJ, JQA, FDSA Option A",
  "steps": [
    {
      "id": "gettingStart",
      "title": "txt_get_started",
      "component": "GetStartedManageAdjustmentsSystem",
      "wrappedContent": false,
      "dataApi": "updateManageAdjustmentsSystemWorkflowInstance",
      "order": 1,
      "jfsFormId": "configJfs",
      "flsAdjFormId": "configFlsAdj",
      "jqaFormId": "configJqa",
      "fdsaFormId": "configFdsa"
    },
    {
      "id": "changeInformation",
      "title": "txt_select_a_change",
      "component": "ChangeInformation",
      "dataApi": "createManageAdjustmentsSystemWorkflowInstance",
      "order": 2
    },
    {
      "id": "configJfs",
      "title": "txt_config_manage_adjustments_system_progressbar_jfs",
      "component": "ConfigJFSManageAdjustmentsSystem",
      "dataApi": "updateManageAdjustmentsSystemWorkflowInstance",
      "condition": {
        "operator": "=",
        "source": "gettingStart.jfs",
        "target": true
      },
      "order": 3
    },
    {
      "id": "configFlsAdj",
      "title": "txt_config_manage_adjustments_system_progressbar_flsAdj",
      "component": "ConfigFLSADJManageAdjustmentsSystem",
      "dataApi": "updateManageAdjustmentsSystemWorkflowInstance",
      "condition": {
        "operator": "=",
        "source": "gettingStart.flsAdj",
        "target": true
      },
      "order": 3
    },
    {
      "id": "configJqa",
      "title": "txt_config_manage_adjustments_system_progressbar_jqa",
      "component": "ConfigJQAManageAdjustmentsSystem",
      "dataApi": "updateManageAdjustmentsSystemWorkflowInstance",
      "condition": {
        "operator": "=",
        "source": "gettingStart.jqa",
        "target": true
      },
      "order": 3
    },
    {
      "id": "configFdsa",
      "title": "txt_config_manage_adjustments_system_progressbar_fdsa",
      "component": "ConfigFDSAManageAdjustmentsSystem",
      "dataApi": "updateManageAdjustmentsSystemWorkflowInstance",
      "condition": {
        "operator": "=",
        "source": "gettingStart.fdsa",
        "target": true
      },
      "order": 3
    },
    {
      "id": "reviewAndSubmit",
      "title": "txt_review_and_submit",
      "component": "Summary",
      "dataApi": "setupManageAdjustmentsSystemWorkflow",
      "order": 4
    }
  ]
}
