{
  "workflowInfo": "FDSA Option A",
  "steps": [
    {
      "id": "gettingStart",
      "title": "txt_get_started",
      "component": "GetStartedManageOCSShellsWorkflow"
    },
    {
      "id": "changeInformation",
      "title": "txt_select_a_change",
      "component": "ChangeInformation",
      "type": "security",
      "dataApi": "createManageOCSShellsWorkflowInstance"
    },
    {
      "id": "configureParameters",
      "title": "txt_configure_parameters",
      "dataApi": "updateManageOCSShellsWorkflowInstance",
      "component": "ConfigureParameterManageOCSShellsWorkflow"
    },
    {
      "id": "reviewAndSubmit",
      "title": "txt_review_and_submit",
      "component": "Summary",
      "dataApi": "setupManageOCSShellsWorkflow"
    }
  ]
}
