{
  "steps": [
    {
      "id": "gettingStart",
      "title": "txt_get_started",
      "wrappedContent": false,
      "component": "GetStartedManageAccountMemos",
      "dataApi": "updateManageAccountMemosWorkflowInstance",
      "order": 1
    },
    {
      "id": "changeInformation",
      "title": "txt_select_a_change",
      "component": "ChangeInformation",
      "type": "security",
      "dataApi": "createManageAccountMemosWorkflowInstance",
      "order": 2
    },
    {
      "id": "uploadFileAdd",
      "title": "txt_upload_file",
      "downloadTemplateType": "manageAccountMemosWorkflow",
      "dataApi": "updateManageAccountMemosWorkflowInstance",
      "component": "UploadFile",
      "subContent": "SubContentManageAccountMemos",
      "condition": {
        "operator": "=",
        "source": "gettingStart.actionsMemos",
        "target": "Add Memos"
      },
      "order": 3
    },
    {
      "id": "uploadFileDelete",
      "title": "txt_upload_file",
      "downloadTemplateType": "manageAccountMemosWorkflow",
      "dataApi": "updateManageAccountMemosWorkflowInstance",
      "component": "UploadFile",
      "hideDownloadTemplate": true,
      "uploadDescription": "txt_manage_account_memos_upload_file_description",
      "condition": {
        "operator": "=",
        "source": "gettingStart.actionsMemos",
        "target": "Delete Memos"
      },
      "order": 3
    },
    {
      "id": "configureParametersManageAccountMemos",
      "title": "txt_configure_parameters",
      "dataApi": "updateManageAccountMemosWorkflowInstance",
      "component": "ConfigureParametersManageAccountMemos",
      "condition": {
        "operator": "and",
        "childrens": [
          {
            "operator": "=",
            "source": "gettingStart.nameMemos",
            "targetPath": "gettingStart.nameMemos"
          },
          {
            "operator": "!=",
            "source": "gettingStart.actionsMemos",
            "target": "Delete Memos"
          }
        ]
      },
      "order": 4
    },
    {
      "id": "reviewAndSubmit",
      "title": "txt_review_and_submit",
      "component": "Summary",
      "dataApi": "setupManageAccountMemosWorkflow",
      "order": 5
    }
  ]
}
