{
  "steps": [
    {
      "id": "gettingStart",
      "title": "txt_get_started",
      "component": "GetStartedManageMethodLevelProcessingDecisionTables",
      "dataApi": "updateManageMethodLevelProcessingDecisionTablesMLPWorkflowInstance",
      "wrappedContent": false,

      "aqFormId": "configMlpAq",
      "aqUploadFileFormId": "uploadFileAccountQualification",
      "caFormId": "configMlpCa",
      "caUploadFileFormId": "uploadFileClientAllocation",
      "stFormId": "configMlpSt",
      "stUploadFileFormId": "uploadFileSelectionTable",
      "order": 1
    },
    {
      "id": "changeInformation",
      "title": "txt_select_a_change",
      "component": "ChangeInformation",
      "dataApi": "createManageMethodLevelProcessingDecisionTablesMLPWorkflowInstance",
      "order": 2
    },
    {
      "id": "configMlpAq",
      "title": "txt_manage_method_level_processing_decision_tables_configure_parameters_account_qualification",
      "condition": {
        "operator": "and",
        "childrens": [
          {
            "operator": "=",
            "source": "gettingStart.aq",
            "target": true
          },
          {
            "operator": "=",
            "source": "uploadFileAccountQualification.files",
            "targetPath": "uploadFileAccountQualification.files"
          }
        ]
      },
      "type": "AQ",
      "component": "ConfigureParameterLevelProcessingAQWorkflow",
      "clearFormName": "uploadFileAccountQualification",
      "dataApi": "updateManageMethodLevelProcessingDecisionTablesMLPWorkflowInstance",
      "order": 3
    },
    {
      "id": "uploadFileAccountQualification",
      "title": "txt_manage_method_level_processing_decision_tables_upload_file_account_qualification",
      "condition": {
        "operator": "and",
        "childrens": [
          {
            "operator": "=",
            "source": "gettingStart.aq",
            "target": true
          },
          {
            "operator": "=",
            "source": "configMlpAq.tables",
            "targetPath": "configMlpAq.tables"
          }
        ]
      },
      "component": "MultiStepUploadFile",
      "type": "AQ",
      "downloadTemplateType": "manageMethodLevelProcessingDecisionTablesMLPWorkflowAQ",
      "subContent": "MLPTableList",
      "downloadHeaderText": "txt_manage_method_level_processing_decision_tables_upload_file_account_qualification_title",
      "dataApi": "updateManageMethodLevelProcessingDecisionTablesMLPWorkflowInstance",
      "order": 4
    },
    {
      "id": "configMlpCa",
      "title": "txt_manage_method_level_processing_decision_tables_configure_parameters_client_allocation",
      "condition": {
        "operator": "and",
        "childrens": [
          {
            "operator": "=",
            "source": "gettingStart.ca",
            "target": true
          },
          {
            "operator": "=",
            "source": "uploadFileClientAllocation.files",
            "targetPath": "uploadFileClientAllocation.files"
          }
        ]
      },
      "component": "ConfigureParameterLevelProcessingCAWorkflow",
      "clearFormName": "uploadFileClientAllocation",
      "type": "CA",
      "dataApi": "updateManageMethodLevelProcessingDecisionTablesMLPWorkflowInstance",
      "order": 5
    },
    {
      "id": "uploadFileClientAllocation",
      "title": "txt_manage_method_level_processing_decision_tables_upload_file_client_allocation",
      "condition": {
        "operator": "and",
        "childrens": [
          {
            "operator": "=",
            "source": "gettingStart.ca",
            "target": true
          },
          {
            "operator": "=",
            "source": "configMlpCa.tables",
            "targetPath": "configMlpCa.tables"
          }
        ]
      },
      "component": "MultiStepUploadFile",
      "dataApi": "updateManageMethodLevelProcessingDecisionTablesMLPWorkflowInstance",
      "downloadTemplateType": "manageMethodLevelProcessingDecisionTablesMLPWorkflowCA",
      "subContent": "MLPTableList",
      "type": "CA",
      "downloadHeaderText": "txt_manage_method_level_processing_decision_tables_upload_file_client_allocation_title",
      "order": 6
    },
    {
      "id": "configMlpSt",
      "title": "txt_manage_method_level_processing_decision_tables_configure_parameters_selection_table",
      "condition": {
        "operator": "and",
        "childrens": [
          {
            "operator": "=",
            "source": "gettingStart.st",
            "target": true
          },
          {
            "operator": "=",
            "source": "uploadFileSelectionTable.files",
            "targetPath": "uploadFileSelectionTable.files"
          }
        ]
      },
      "component": "ConfigureParameterLevelProcessingSTWorkflow",
      "clearFormName": "uploadFileSelectionTable",
      "type": "ST",
      "dataApi": "updateManageMethodLevelProcessingDecisionTablesMLPWorkflowInstance",
      "order": 7
    },
    {
      "id": "uploadFileSelectionTable",
      "title": "txt_manage_method_level_processing_decision_tables_upload_file_selection_table",
      "condition": {
        "operator": "and",
        "childrens": [
          {
            "operator": "=",
            "source": "gettingStart.st",
            "target": true
          },
          {
            "operator": "=",
            "source": "configMlpSt.tables",
            "targetPath": "configMlpSt.tables"
          }
        ]
      },
      "component": "MultiStepUploadFile",
      "downloadTemplateType": "manageMethodLevelProcessingDecisionTablesMLPWorkflowST",
      "type": "ST",
      "subContent": "MLPTableList",
      "downloadHeaderText": "txt_manage_method_level_processing_decision_tables_upload_file_selection_table_title",
      "dataApi": "updateManageMethodLevelProcessingDecisionTablesMLPWorkflowInstance",
      "order": 8
    },
    {
      "id": "reviewAndSubmit",
      "title": "txt_review_and_submit",
      "component": "Summary",
      "dataApi": "setupManageMethodLevelProcessingDecisionTablesMLPWorkflow",
      "order": 9
    }
  ]
}
