{
  "steps": [
    {
      "id": "gettingStart",
      "title": "txt_get_started",
      "component": "GetStartedPortfolioDefinitionsMethods"
    },
    {
      "id": "changeInformation",
      "title": "txt_select_a_change",
      "component": "ChangeInformation",
      "dataApi": "createPortfolioDefinitionsWorkflowInstance"
    },
    {
      "id": "configureParameters",
      "title": "txt_configure_parameters",
      "dataApi": "updatePortfolioDefinitionsWorkflowInstance",
      "component": "ConfigureParametersPortfolioDefinitions"
    },
    {
      "id": "reviewAndSubmit",
      "title": "txt_review_and_submit",
      "component": "Summary",
      "dataApi": "setupPortfolioDefinitionsWorkflow"
    }
  ]
}
