{
  "workflowInfo": "CP IC IR",
  "steps": [
    {
      "id": "gettingStart",
      "title": "txt_get_started",
      "component": "GetStartedUpdateIndexRateWorkflow"
    },
    {
      "id": "changeInformation",
      "title": "txt_select_a_change",
      "component": "ChangeInformation",
      "type": "security",
      "dataApi": "createUpdateIndexRateWorkflowInstance"
    },
    {
      "id": "configureParameters",
      "title": "txt_configure_parameters",
      "dataApi": "updateUpdateIndexRateWorkflowInstance",
      "component": "ConfigureParameterUpdateIndexRateWorkflow"
    },
    {
      "id": "reviewAndSubmit",
      "title": "txt_review_and_submit",
      "component": "Summary",
      "dataApi": "setupUpdateIndexRateWorkflow"
    }
  ]
}
