﻿{
  "views": [
    {
      "name": "empty-view",
      "layout": {
        "name": "BootstrapGridLayout",
        "layoutOptions": {
          "className": "d-none"
        }
      },
      "fields": [
        {
          "name": "empty"
        }
      ]
    },
    {
      "name": "portfolio-card-view",
      "layout": {
        "name": "DynamicBootstrapGridLayout",
        "layoutOptions": {
          "className": ""
        }
      },
      "fields": [
        {
          "name": "image_cardTypeUrl",
          "layoutProps": {
            "className": "pr-0 col-auto mb-4 mr-n4"
          }
        },
        {
          "name": "heading5_portfolioName",
          "layoutProps": {
            "className": "col-10 mb-4"
          }
        },
        {
          "name": "groupTextInline_clientId",
          "layoutProps": {
            "className": "col-xl-3 col-lg-4 col-6"
          }
        },
        {
          "name": "groupTextInline_portfolioId",
          "layoutProps": {
            "className": "col-xl-3 col-lg-4 col-6"
          }
        },
        {
          "name": "groupTextMoreInline_SPA",
          "layoutProps": {
            "className": "col-xl-3 col-lg-4 col-6"
          }
        },
        {
          "name": "divider",
          "layoutProps": {
            "className": "py-6 col-12 mx-n4"
          }
        },
        {
          "name": "groupTextInline_activeAccounts",
          "layoutProps": {
            "className": "col-xl-3 col-lg-4 col-6"
          }
        },
        {
          "name": "groupTextInline_availableAccounts",
          "layoutProps": {
            "className": "col-xl-3 col-lg-4 col-6"
          }
        },
        {
          "name": "groupTextInline_noOfPricingStrategies",
          "layoutProps": {
            "className": "col-xl-3 col-lg-4 col-6"
          }
        },
        {
          "name": "groupTextInline_portfolioNew",
          "layoutProps": {
            "className": "col-xl-3 col-lg-4 col-6"
          }
        },
        {
          "name": "groupTextInline_payments",
          "layoutProps": {
            "className": "col-xl-3 col-lg-4 col-6"
          }
        },
        {
          "name": "groupTextInline_netIncome",
          "layoutProps": {
            "className": "col-xl-3 col-lg-4 col-6"
          }
        },
        {
          "name": "groupTextInline_availableCredit",
          "layoutProps": {
            "className": "col-xl-3 col-lg-4 col-6"
          }
        },
        {
          "name": "groupTextInline_totalDelinquency",
          "layoutProps": {
            "className": "col-xl-3 col-lg-4 col-6"
          }
        }
      ]
    },
    {
      "name": "portfolio-card-grid-view",
      "layout": {
        "name": "DynamicBootstrapGridLayout",
        "layoutOptions": {
          "className": "px-16 pb-8"
        }
      },
      "fields": [
        {
          "name": "image_cardTypeUrl",
          "layoutProps": {
            "className": "pr-0 col-auto mb-4 pt-2 mr-n4"
          }
        },
        {
          "name": "heading5_portfolioName",
          "layoutProps": {
            "className": "col-10 mb-4"
          }
        },
        {
          "name": "groupTextInline_clientId",
          "layoutProps": {
            "className": "col-6"
          }
        },
        {
          "name": "groupTextInline_activeAccounts",
          "layoutProps": {
            "className": "col-6"
          }
        },
        {
          "name": "groupTextInline_availableAccounts",
          "layoutProps": {
            "className": "col-6"
          }
        },
        {
          "name": "groupTextInline_portfolioId",
          "layoutProps": {
            "className": "col-6"
          }
        },
        {
          "name": "groupTextInline_noOfPricingStrategies",
          "layoutProps": {
            "className": "col-6"
          }
        },
        {
          "name": "groupTextInline_portfolioNew",
          "layoutProps": {
            "className": "col-6"
          }
        },
        {
          "name": "groupTextMoreInline_SPA",
          "layoutProps": {
            "className": "col-6"
          }
        },
        {
          "name": "groupTextInline_totalDelinquency",
          "layoutProps": {
            "className": "col-6"
          }
        },
        {
          "name": "groupTextInline_payments",
          "layoutProps": {
            "className": "col-6"
          }
        },
        {
          "name": "groupTextInline_netIncome",
          "layoutProps": {
            "className": "col-6"
          }
        },
        {
          "name": "groupTextInline_availableCredit",
          "layoutProps": {
            "className": "col-6"
          }
        }
      ]
    },
    {
      "name": "workflow-template-card-view",
      "layout": {
        "name": "DynamicBootstrapGridLayout",
        "layoutOptions": {
          "className": "flex-1"
        }
      },
      "fields": [
        {
          "name": "icon_workflowAction",
          "layoutProps": {
            "className": "col-auto pt-2 pr-8"
          }
        },
        {
          "name": "heading5_name",
          "layoutProps": {
            "className": "col pl-0"
          },
          "truncate": true
        },
        {
          "name": "badgeGroupTextInline_tag",
          "layoutProps": {
            "className": "col-auto mt-2 pr-8"
          }
        },
        {
          "name": "button_openWorkflow",
          "layoutProps": {
            "className": "col-auto pl-0 mr-n8"
          }
        },
        {
          "name": "groupTextInline_description",
          "layoutProps": {
            "className": "col-12 mt-4"
          }
        },
        {
          "name": "groupTextInline_lastExecutedDate",
          "layoutProps": {
            "className": "col-12 col-lg-6 w-xxl-60 mt-4"
          }
        },
        {
          "name": "groupTextInline_numberOfExecutions",
          "layoutProps": {
            "className": "col-12 col-lg-6 w-xxl-40 mt-4"
          }
        }
      ]
    },
    {
      "name": "workflow-template-card-view--home-page",
      "layout": {
        "name": "DynamicBootstrapGridLayout",
        "layoutOptions": {
          "className": "flex-1"
        }
      },
      "fields": [
        {
          "name": "icon_workflowAction",
          "layoutProps": {
            "className": "col-auto pt-2 pr-8"
          }
        },
        {
          "name": "heading5_name",
          "layoutProps": {
            "className": "col pl-0"
          },
          "truncate": true
        },
        {
          "name": "badgeGroupTextInline_tag",
          "layoutProps": {
            "className": "col-auto mt-2 pr-8"
          }
        },
        {
          "name": "button_openWorkflow",
          "layoutProps": {
            "className": "col-auto pl-0 mr-n8"
          }
        },
        {
          "name": "groupTextInline_description",
          "layoutProps": {
            "className": "col-12 mt-4"
          }
        },
        {
          "name": "groupTextInline_lastExecutedDate",
          "layoutProps": {
            "className": "col-6 mt-4"
          }
        },
        {
          "name": "groupTextInline_numberOfExecutions",
          "layoutProps": {
            "className": "col-6 mt-4"
          }
        }
      ]
    },
    {
      "name": "workflow-template-card-view--status-group",
      "layout": {
        "name": "DynamicBootstrapGridLayout",
        "layoutOptions": {
          "className": ""
        }
      },
      "fields": [
        {
          "name": "heading5_name",
          "layoutProps": {
            "className": "col"
          },
          "truncate": true
        },
        {
          "name": "icon_workflowAction",
          "layoutProps": {
            "className": "col-auto pt-2"
          }
        },
        {
          "name": "groupTextInline_description",
          "layoutProps": {
            "className": "col-12 mt-4"
          }
        },
        {
          "name": "groupTextInline_numberOfExecutions",
          "layoutProps": {
            "className": "col-12 mt-4"
          }
        },
        {
          "name": "groupTextInline_lastExecutedDate",
          "layoutProps": {
            "className": "col mt-4"
          }
        },
        {
          "name": "button_openWorkflow",
          "layoutProps": {
            "className": "col-auto mt-4 mb-n8 mr-n8"
          }
        }
      ]
    },
    {
      "name": "workflow-in-progress-card-view--small",
      "layout": {
        "name": "DynamicBootstrapGridLayout",
        "layoutOptions": {
          "className": ""
        }
      },
      "fields": [
        {
          "name": "heading5_name",
          "layoutProps": {
            "className": "col"
          },
          "truncate": true
        },
        {
          "name": "badgeGroupTextInline_workflowType",
          "layoutProps": {
            "className": "col-auto pt-2"
          }
        },
        {
          "name": "badgeGroupTextInline_status",
          "layoutProps": {
            "className": "col-auto pt-2"
          }
        },
        {
          "name": "button_editWorkflow",
          "layoutProps": {
            "className": "col-auto ml-n16 mr-n8"
          }
        },
        {
          "name": "groupTextInline_description",
          "layoutProps": {
            "className": "col-12 mt-4"
          }
        },
        {
          "name": "groupTextInline_firstRan",
          "layoutProps": {
            "className": "col-6"
          }
        },
        {
          "name": "bubbleGroupTextInline_firstRanBy",
          "layoutProps": {
            "className": "col-6"
          }
        },
        {
          "name": "groupTextInline_updatedDate",
          "layoutProps": {
            "className": "col-6"
          }
        },
        {
          "name": "bubbleGroupTextInline_lastUpdatedBy",
          "layoutProps": {
            "className": "col-6"
          }
        },
        {
          "name": "groupTextInlineLink_changeName",
          "layoutProps": {
            "className": "col-6"
          }
        },
        {
          "name": "groupTextInlineLink_changeId",
          "layoutProps": {
            "className": "col-6"
          }
        },
        {
          "name": "iconWithVal_countOfAttachments",
          "layoutProps": {
            "className": "workflow-card-view--attachment"
          }
        }
      ]
    },
    {
      "name": "workflow-in-progress-card-view-header--small",
      "layout": {
        "name": "DynamicBootstrapGridLayout",
        "layoutOptions": {
          "className": "workflow-in-progress-card-view-header--small"
        }
      },
      "fields": [
        {
          "name": "heading5_name",
          "layoutProps": {
            "className": "col ml-28"
          },
          "truncate": true
        },
        {
          "name": "badgeGroupTextInline_workflowType",
          "layoutProps": {
            "className": "col-auto pt-2 pb-4"
          }
        },
        {
          "name": "button_continueWorkflow",
          "layoutProps": {
            "className": "col-auto ml-n16 mr-n8"
          }
        },
        {
          "name": "empty-div",
          "layoutProps": {
            "className": "flex-break-row"
          }
        },
        {
          "name": "groupTextInline_updatedDate",
          "layoutProps": {
            "className": "col-auto pr-0 ml-28 mt-n4"
          }
        },
        {
          "name": "div-with-dot",
          "layoutProps": {
            "className": "col-auto px-4 color-grey"
          }
        },
        {
          "name": "bubbleGroupTextInline_lastUpdatedByShort",
          "layoutProps": {
            "className": "col pl-0 mt-n4"
          }
        }
      ]
    },
    {
      "name": "workflow-in-progress-card-view-header",
      "layout": {
        "name": "DynamicBootstrapGridLayout",
        "layoutOptions": {
          "className": ""
        }
      },
      "fields": [
        {
          "name": "heading5_name",
          "layoutProps": {
            "className": "col-xl-5 col ml-32 order-xl-1 order-md-1 mt-xl-2"
          },
          "truncate": true
        },
        {
          "name": "groupTextInline_updatedDate",
          "layoutProps": {
            "className": "col-auto pr-0 ml-32 order-xl-2 order-md-5 mt-n4 mt-xl-0"
          }
        },
        {
          "name": "div-with-dot",
          "layoutProps": {
            "className": "col-auto px-4 color-grey order-xl-3 order-md-6 mt-xl-4"
          }
        },
        {
          "name": "bubbleGroupTextInline_lastUpdatedByShort",
          "layoutProps": {
            "className": "col pl-0 order-xl-4 order-md-7 mt-n4 mt-xl-0"
          }
        },
        {
          "name": "badgeGroupTextInline_workflowType",
          "layoutProps": {
            "className": "col-auto pt-2 order-xl-5 order-md-2 pb-4"
          }
        },
        {
          "name": "button_continueWorkflow",
          "layoutProps": {
            "className": "col-auto ml-n16 mr-n8 order-xl-6 order-md-3"
          }
        },
        {
          "name": "empty-div",
          "layoutProps": {
            "className": "flex-break-row order-xl-7 order-md-4"
          }
        }
      ]
    },
    {
      "name": "workflow-in-progress-card-view",
      "layout": {
        "name": "DynamicBootstrapGridLayout",
        "layoutOptions": {
          "className": ""
        }
      },
      "fields": [
        {
          "name": "groupTextInline_workflowNote",
          "layoutProps": {
            "className": "col-12"
          }
        },
        {
          "name": "groupTextInlineLink_changeId",
          "layoutProps": {
            "className": "col-6 col-xl-5"
          }
        },
        {
          "name": "groupTextInlineLink_changeName",
          "layoutProps": {
            "className": "col-6 ml-xl-64"
          }
        },
        {
          "name": "groupTextInline_firstRan",
          "layoutProps": {
            "className": "col-6 col-xl-5"
          }
        },
        {
          "name": "bubbleGroupTextInline_firstRanBy",
          "layoutProps": {
            "className": "col-6 ml-xl-64"
          }
        }
      ]
    },
    {
      "name": "workflow-in-progress-card-view--small",
      "layout": {
        "name": "DynamicBootstrapGridLayout",
        "layoutOptions": {
          "className": ""
        }
      },
      "fields": [
        {
          "name": "groupTextInline_workflowNote",
          "layoutProps": {
            "className": "col-12"
          }
        },
        {
          "name": "groupTextInlineLink_changeId",
          "layoutProps": {
            "className": "col-6"
          }
        },
        {
          "name": "groupTextInlineLink_changeName",
          "layoutProps": {
            "className": "col-6"
          }
        },
        {
          "name": "groupTextInline_firstRan",
          "layoutProps": {
            "className": "col-6"
          }
        },
        {
          "name": "bubbleGroupTextInline_firstRanBy",
          "layoutProps": {
            "className": "col-6"
          }
        }
      ]
    },
    {
      "name": "change-card-view-header",
      "layout": {
        "name": "DynamicBootstrapGridLayout",
        "layoutOptions": {
          "className": ""
        }
      },
      "fields": [
        {
          "name": "heading5_changeName",
          "truncate": true,
          "layoutProps": {
            "className": "w-35 w-lg-30 w-xl-25 order-md-0 order-lg-0 order-xl-0 pl-40"
          }
        },
        {
          "name": "groupTextInline_changeId",
          "layoutProps": {
            "className": "w-40 w-lg-25 w-xl-20 order-md-1 order-lg-1 order-xl-1"
          }
        },
        {
          "name": "groupTextInline_approvalDate",
          "layoutProps": {
            "className": "w-70 w-lg-25 w-xl-20 order-md-5 order-lg-5 order-xl-2 offset-md-w-35 offset-lg-0"
          }
        },
        {
          "name": "groupTextInline_createdDate",
          "layoutProps": {
            "className": "w-70 w-lg-25 w-xl-20 order-md-7 order-lg-7 order-xl-3 offset-md-w-35 offset-lg-w-30 offset-xl-0"
          }
        },
        {
          "name": "badgeGroupTextInline_changeType",
          "layoutProps": {
            "className": "w-25 w-lg-20 w-xl-15 order-md-2 order-lg-3 order-xl-4 change-type-card"
          }
        },
        {
          "name": "badgeGroupTextInline_changeStatus",
          "layoutProps": {
            "className": "w-35 w-lg-30 w-xl-25 order-md-3 order-lg-4 order-xl-5 mt-2 mt-lg-2 mt-xl-0 pl-40"
          }
        },
        {
          "name": "groupTextInline_effectiveDate",
          "layoutProps": {
            "className": "w-65 w-lg-25 w-xl-20 order-md-4 order-lg-2 order-xl-6"
          }
        },
        {
          "name": "bubbleGroupTextInline_lastApprovedBy",
          "layoutProps": {
            "className": "w-70 w-lg-45 w-xl-20 order-md-6 order-lg-6 order-xl-7 offset-md-w-35 offset-lg-0"
          }
        },
        {
          "name": "bubbleGroupTextInline_changeOwner",
          "layoutProps": {
            "className": "w-70 w-lg-45 w-xl-20 order-md-8 order-lg-8 order-xl-8 offset-md-w-35 offset-lg-0"
          }
        }
      ]
    },
    {
      "name": "change-card-view",
      "layout": {
        "name": "DynamicBootstrapGridLayout",
        "layoutOptions": {
          "className": ""
        }
      },
      "fields": [
        {
          "name": "change_portfolio_label",
          "dataField": "",
          "layoutProps": {
            "className": "w-35 w-lg-30 w-xl-25 pt-4 d-flex align-items-center"
          }
        },
        {
          "name": "groupTextInline_portfoliosImpacted",
          "layoutProps": {
            "className": "w-65 w-lg-70 w-xl-75"
          }
        },
        {
          "name": "change_cardHodlderAccount_label",
          "dataField": "",
          "layoutProps": {
            "className": "w-35 w-lg-30 w-xl-25 pt-4 d-flex align-items-center"
          }
        },
        {
          "name": "groupTextInline_cardholdersAccountsImpacted",
          "layoutProps": {
            "className": "w-65 w-lg-70 w-xl-75"
          }
        },
        {
          "name": "change_pricingStrategies_label",
          "dataField": "",
          "layoutProps": {
            "className": "w-35 w-lg-30 w-xl-25 pt-4 d-flex align-items-center"
          }
        },
        {
          "name": "groupTextInline_pricingStrategiesCreatedCount",
          "layoutProps": {
            "className": "w-25 w-lg-25 w-xl-20"
          }
        },
        {
          "name": "groupTextInline_pricingStrategiesUpdatedCount",
          "layoutProps": {
            "className": "w-25 w-lg-25 w-xl-20"
          }
        },
        {
          "name": "groupTextInline_pricingStrategiesImpactedCount",
          "layoutProps": {
            "className": "w-15 w-lg-20 w-xl-35"
          }
        },
        {
          "name": "change_pricingMethods_label",
          "dataField": "",
          "layoutProps": {
            "className": "w-35 w-lg-30 w-xl-25 pt-4 d-flex align-items-center"
          }
        },
        {
          "name": "groupTextInline_pricingMethodsCreatedCount",
          "layoutProps": {
            "className": "w-25 w-lg-25 w-xl-20"
          }
        },
        {
          "name": "groupTextInline_pricingMethodsUpdatedCount",
          "layoutProps": {
            "className": "w-40 w-lg-45 w-xl-55"
          }
        },
        {
          "name": "change_dmmTables_label",
          "dataField": "",
          "layoutProps": {
            "className": "w-35 w-lg-30 w-xl-25 pt-4 d-flex align-items-center"
          }
        },
        {
          "name": "groupTextInline_noOfDMMTablesCreated",
          "layoutProps": {
            "className": "w-25 w-lg-25 w-xl-20"
          }
        },
        {
          "name": "groupTextInline_noOfDMMTablesUpdated",
          "layoutProps": {
            "className": "w-40 w-lg-45 w-xl-55"
          }
        }
      ]
    },
    {
      "name": "approval-queue-card-view-header",
      "layout": {
        "name": "DynamicBootstrapGridLayout",
        "layoutOptions": {
          "className": ""
        }
      },
      "fields": [
        {
          "name": "heading5_changeName",
          "layoutProps": {
            "className": "col mb-2"
          }
        },
        {
          "name": "badgeGroupTextInline_changeType",
          "layoutProps": {
            "className": "col-auto mb-2"
          },
          "options": {
            "colorType": "workflowType",
            "noBorder": true
          }
        },
        {
          "name": "badgeGroupTextInline_changeStatus",
          "layoutProps": {
            "className": "col-auto mb-2"
          }
        }
      ]
    },
    {
      "name": "approval-queue-card-view",
      "layout": {
        "name": "DynamicBootstrapGridLayout",
        "layoutOptions": {
          "className": ""
        }
      },
      "fields": [
        {
          "name": "groupTextInline_changeId",
          "layoutProps": {
            "className": "col-xl-3 col-lg-4 col-6"
          }
        },
        {
          "name": "groupTextInline_createdDate",
          "layoutProps": {
            "className": "col-xl-3 col-lg-4 col-6"
          }
        },
        {
          "name": "groupTextInline_effectiveDate",
          "layoutProps": {
            "className": "col-xl-3 col-lg-4 col-6"
          }
        },
        {
          "name": "groupTextInline_lastApprovedDate",
          "layoutProps": {
            "className": "col-xl-3 col-lg-4 col-6"
          }
        },
        {
          "name": "bubbleGroupTextInline_lastApprovedBy",
          "layoutProps": {
            "className": "col-xl-3 col-lg-4 col-6"
          }
        },
        {
          "name": "groupTextInline_pricingStrategiesCreatedCount",
          "layoutProps": {
            "className": "col-xl-3 col-lg-4 col-6"
          }
        },
        {
          "name": "groupTextInline_pricingStrategiesUpdatedCount",
          "layoutProps": {
            "className": "col-xl-3 col-lg-4 col-6"
          }
        },
        {
          "name": "groupTextInline_pricingMethodsCreatedCount",
          "layoutProps": {
            "className": "col-xl-3 col-lg-4 col-6"
          }
        },
        {
          "name": "groupTextInline_pricingMethodsUpdatedCount",
          "layoutProps": {
            "className": "col-xl-3 col-lg-4 col-6"
          }
        },
        {
          "name": "groupTextInline_noOfDMMTablesCreated",
          "layoutProps": {
            "className": "col-xl-3 col-lg-4 col-6"
          }
        },
        {
          "name": "groupTextInline_noOfDMMTablesUpdated",
          "layoutProps": {
            "className": "col-xl-3 col-lg-4 col-6"
          }
        },
        {
          "name": "groupTextInline_cardholdersAccountsImpacted",
          "layoutProps": {
            "className": "col-xl-3 col-lg-4 col-6"
          }
        },
        {
          "name": "groupTextInline_portfoliosImpacted",
          "layoutProps": {
            "className": "col-xl-3 col-lg-4 col-6"
          }
        },
        {
          "name": "bubbleGroupTextInline_changeOwner",
          "layoutProps": {
            "className": "col-xl-3 col-lg-4 col-6"
          }
        }
      ]
    },
    {
      "name": "change-detail-snapshot",
      "layout": {
        "name": "DynamicBootstrapGridLayout",
        "layoutOptions": {
          "className": "pb-8"
        }
      },
      "fields": [
        {
          "name": "groupText_changeId",
          "layoutProps": {
            "className": "col-4 col-lg-3 w-xl-20"
          }
        },
        {
          "name": "groupText_createdDate",
          "layoutProps": {
            "className": "col-4 col-lg-3 w-xl-20"
          }
        },

        {
          "name": "groupText_effectiveDate",
          "layoutProps": {
            "className": "col-4 col-lg-3 w-xl-20"
          }
        },
        {
          "name": "groupText_approvalDate",
          "layoutProps": {
            "className": "col-4 col-lg-3 w-xl-20"
          }
        },
        {
          "name": "badgeGroupText_changeStatus",
          "layoutProps": {
            "className": "col-4 col-lg-3 w-xl-20"
          }
        },
        {
          "name": "badgeGroupText_changeType",
          "layoutProps": {
            "className": "col-4 col-lg-3 w-xl-20"
          }
        },
        {
          "name": "groupText_cardholdersAccountsImpacted",
          "layoutProps": {
            "className": "col-4 col-lg-3 w-xl-20"
          }
        },
        {
          "name": "groupText_portfoliosImpacted",
          "layoutProps": {
            "className": "col-4 col-lg-3 w-xl-20"
          }
        },
        {
          "name": "groupText_pricingStrategiesCreatedCount",
          "layoutProps": {
            "className": "col-4 col-lg-3 w-xl-20"
          }
        },
        {
          "name": "groupText_pricingStrategiesUpdatedCount",
          "layoutProps": {
            "className": "col-4 col-lg-3 w-xl-20"
          }
        },
        {
          "name": "groupText_pricingStrategiesImpactedCount",
          "layoutProps": {
            "className": "col-4 col-lg-3 w-xl-20"
          }
        },
        {
          "name": "groupText_pricingMethodsCreatedCount",
          "layoutProps": {
            "className": "col-4 col-lg-3 w-xl-20"
          }
        },
        {
          "name": "groupText_pricingMethodsUpdatedCount",
          "layoutProps": {
            "className": "col-4 col-lg-3 w-xl-20"
          }
        },
        {
          "name": "groupText_pricingMethodsImpacted",
          "layoutProps": {
            "className": "col-4 col-lg-3 w-xl-20"
          }
        },
        {
          "name": "groupText_noOfDMMTablesCreated",
          "layoutProps": {
            "className": "col-4 col-lg-3 w-xl-20"
          }
        },
        {
          "name": "groupText_noOfDMMTablesUpdated",
          "layoutProps": {
            "className": "col-4 col-lg-3 w-xl-20"
          }
        },
        {
          "name": "bubbleGroupText_changeOwner",
          "layoutProps": {
            "className": "col-4 col-lg-3 w-xl-20"
          }
        },
        {
          "name": "groupText_changeDescription",
          "layoutProps": {
            "className": "col-8 col-lg-6 w-xl-40"
          }
        }
      ]
    },
    {
      "name": "change-workflow-card-view--content",
      "layout": {
        "name": "BootstrapGridLayout",
        "layoutOptions": {
          "className": "px-12"
        }
      },
      "fields": [
        {
          "name": "groupTextInline_firstRan",
          "layoutProps": {
            "className": "col-12 col-lg-auto pr-lg-0 mt-n4"
          }
        },
        {
          "name": "div-with-dot",
          "layoutProps": {
            "className": "col-auto px-4 color-grey d-none d-lg-block"
          }
        },
        {
          "name": "bubbleGroupTextInline_firstRanByShort",
          "layoutProps": {
            "className": "col-12 col-lg pl-lg-0 mt-n4"
          }
        },
        {
          "name": "empty-div",
          "layoutProps": {
            "className": "flex-break-row col-12"
          }
        },
        {
          "name": "groupTextInline_updatedDate",
          "layoutProps": {
            "className": "col-12 col-lg-auto pr-lg-0 mt-2"
          }
        },
        {
          "name": "div-with-dot",
          "layoutProps": {
            "className": "col-auto px-4 color-grey mt-6 d-none d-lg-block"
          }
        },
        {
          "name": "bubbleGroupTextInline_lastUpdatedByShort",
          "layoutProps": {
            "className": "col-12 col-lg pl-lg-0 mt-2"
          }
        }
      ]
    },
    {
      "name": "change-workflow-card-view--right",
      "layout": {
        "name": "DynamicBootstrapGridLayout",
        "layoutOptions": {
          "className": "flex-1 px-12 mr-n16"
        }
      },
      "fields": [
        {
          "name": "button_editWorkflow",
          "layoutProps": {
            "className": "col-12 d-flex justify-content-end ml-16 mr-n8"
          }
        },
        {
          "name": "button_continueWorkflow",
          "layoutProps": {
            "className": "col-12 d-flex justify-content-end ml-16 mr-n8"
          }
        }
      ]
    },

    {
      "name": "change-workflow-card-view--expaned",
      "layout": {
        "name": "DynamicBootstrapGridLayout",
        "layoutOptions": {
          "className": "no-gutters bg-light-l16 br-bottom-left-radius-8 br-bottom-right-radius-8 px-16 py-8"
        }
      },
      "fields": [
        {
          "name": "groupTextInline_workflowNote",
          "layoutProps": {
            "className": "col mt-n4"
          }
        },
        {
          "name": "iconWithVal_countOfAttachments",
          "layoutProps": {
            "className": "col-auto d-flex align-items-center justify-content-end"
          }
        }
      ]
    },
    {
      "name": "strategy-card-view",
      "layout": {
        "name": "DynamicBootstrapGridLayout",
        "layoutOptions": {
          "className": "align-items-center"
        }
      },
      "fields": [
        {
          "name": "groupTextInline_name",
          "layoutProps": {
            "className": "col-10 mt-n2"
          },
          "options": {
            "valueClass": "pl-28",
            "format": "heading"
          }
        },
        {
          "name": "groupTextInline_numberOfVersions",
          "layoutProps": {
            "className": "col-2 text-right"
          }
        }
      ]
    },
    {
      "name": "strategy-card-view-expanded",
      "layout": {
        "name": "DynamicBootstrapGridLayout",
        "layoutOptions": {
          "className": ""
        }
      },
      "fields": [
        {
          "name": "groupTextInline_effectiveDate",
          "layoutProps": {
            "className": "w-30 pl-50 mt-n4"
          }
        },
        {
          "name": "groupTextInline_accountsProcessedAA",
          "layoutProps": {
            "className": "w-30 mt-n4"
          }
        },
        {
          "name": "groupTextInline_accountsProcessedALP",
          "layoutProps": {
            "className": "w-20 mt-n4"
          }
        },
        {
          "name": "badgeGroupTextInline_status",
          "layoutProps": {
            "className": "w-20 text-right mt-n4"
          },
          "options": {
            "colorType": "strategyStatus"
          }
        },
        {
          "name": "groupTextInline_cisDescription",
          "layoutProps": {
            "className": "w-60 pl-50"
          }
        },
        {
          "name": "groupTextInline_commentArea",
          "layoutProps": {
            "className": "w-40"
          }
        }
      ]
    },
    {
      "name": "change-workflow-detail-snapshot-view",
      "layout": {
        "name": "DynamicBootstrapGridLayout",
        "layoutOptions": {
          "className": ""
        }
      },
      "fields": [
        {
          "name": "groupText_firstRan",
          "layoutProps": {
            "className": "col-6"
          }
        },
        {
          "name": "bubbleGroupText_firstRanBy",
          "layoutProps": {
            "className": "col-6"
          }
        },
        {
          "name": "groupText_updatedDate",
          "layoutProps": {
            "className": "col-6"
          }
        },
        {
          "name": "bubbleGroupText_lastUpdatedBy",
          "layoutProps": {
            "className": "col-6"
          }
        }
      ]
    },
    {
      "name": "change-workflow-detail-details-tab-view",
      "layout": { "name": "DynamicBootstrapGridLayout" },
      "fields": [
        {
          "name": "groupText_workflowNote",
          "layoutProps": {
            "className": "col-12"
          }
        }
      ]
    },
    {
      "name": "change-pricing-strategy-pc-view",
      "layout": {
        "name": "DynamicBootstrapGridLayout",
        "layoutOptions": {
          "className": "align-items-center"
        }
      },
      "fields": [
        {
          "name": "groupTextInline_name",
          "layoutProps": {
            "className": "col-1"
          }
        },
        {
          "name": "groupTextInline_modeledFrom",
          "layoutProps": {
            "className": "col-3"
          }
        },
        {
          "name": "groupText_description",
          "layoutProps": {
            "className": "col-5"
          }
        },
        {
          "name": "groupTextInline_methodsUpdated",
          "layoutProps": {
            "className": "col-2"
          }
        },
        {
          "name": "badgeGroupTextInline_versionCreating",
          "layoutProps": {
            "className": "col-1 d-flex justify-content-end align-items-center"
          }
        }
      ]
    },
    {
      "name": "change-pricing-strategy-tablet-view",
      "layout": {
        "name": "DynamicBootstrapGridLayout",
        "layoutOptions": {
          "className": ""
        }
      },
      "fields": [
        {
          "name": "groupTextInline_name",
          "layoutProps": {
            "className": "col-2"
          }
        },
        {
          "name": "groupTextInline_modeledFrom",
          "layoutProps": {
            "className": "col-5"
          }
        },
        {
          "name": "groupTextInline_methodsUpdated",
          "layoutProps": {
            "className": "col-3"
          }
        },
        {
          "name": "badgeGroupTextInline_versionCreating",
          "layoutProps": {
            "className": "col-2 d-flex justify-content-end align-items-center"
          }
        },
        {
          "name": "groupText_description",
          "layoutProps": {
            "className": "col-12"
          }
        }
      ]
    },
    {
      "name": "change-pricing-strategy-details",
      "layout": {
        "name": "DynamicBootstrapGridLayout",
        "layoutOptions": {
          "className": ""
        }
      },
      "fields": [
        {
          "name": "groupTextInline_name",
          "layoutProps": {
            "className": "col-10"
          }
        },
        {
          "name": "badgeGroupTextInline_versionCreating",
          "layoutProps": {
            "className": "col-2 d-flex justify-content-end align-items-center"
          }
        },
        {
          "name": "groupTextInline_modeledFrom",
          "label": "Modeled From",
          "layoutProps": {
            "className": "col-6"
          },
          "options": {
            "inline": false
          }
        },
        {
          "name": "groupTextInline_methodsUpdated",
          "label": "Methods Updated",
          "layoutProps": {
            "className": "col-6"
          },
          "options": {
            "inline": false
          }
        },
        {
          "name": "groupText_description",
          "label": "Description",
          "layoutProps": {
            "className": "col-12"
          },
          "options": {
            "inline": false,
            "lineTruncate": 2
          }
        }
      ]
    },
    {
      "name": "change-pricing-methods-card-view",
      "layout": {
        "name": "DynamicBootstrapGridLayout"
      },
      "fields": [
        {
          "name": "groupTextInline_name",
          "layoutProps": {
            "className": "col-2 mt-n4"
          }
        },
        {
          "name": "groupTextInline_modeledFrom",
          "layoutProps": {
            "className": "col-xl col-4 mt-n2"
          }
        },
        {
          "name": "groupTextInline_newVersionOf",
          "layoutProps": {
            "className": "col-xl col-4 mt-n2"
          }
        },
        {
          "name": "groupTextInline_methodType",
          "layoutProps": {
            "className": "col-xl-3 col-5 mt-n2"
          }
        },
        {
          "name": "groupTextInline_strategiesImpacted",
          "layoutProps": {
            "className": "col-xl col-6 order-item-last mt-n2"
          }
        },
        {
          "name": "groupTextInline_parametersUpdated",
          "layoutProps": {
            "className": "col-xl col-6 order-item-last mt-n2"
          }
        },
        {
          "name": "badgeGroupTextInline_versionCreating mt-n2",
          "layoutProps": {
            "className": "col-xl-1 col-1 d-flex justify-content-end align-items-center"
          }
        }
      ]
    },
    {
      "name": "dmm-tables-card-view",
      "layout": {
        "name": "DynamicBootstrapGridLayout",
        "layoutOptions": {}
      },
      "fields": [
        {
          "name": "groupTextInline_dmmTableName",
          "layoutProps": {
            "className": "col-4 col-lg-3"
          }
        },
        {
          "name": "groupTextInline_dmmTableId",
          "layoutProps": {
            "className": "col col-lg-3 mt-n2"
          }
        },
        {
          "name": "groupTextInline_dmmTableType",
          "layoutProps": {
            "className": "col-8 offset-4 col-lg offset-lg-0 order-5 order-lg-3 mt-lg-n2"
          }
        },
        {
          "name": "badgeGroup_status",
          "layoutProps": {
            "className": "order-3 order-lg-4 mr-75"
          }
        },
        {
          "name": "groupTextInline_modeledFrom",
          "layoutProps": {
            "className": "col-8 offset-4 col-lg-3 offset-lg-3 order-4 order-lg-5 mt-n2 mt-lg-0"
          }
        },
        {
          "name": "groupTextInline_newVersionOf",
          "layoutProps": {
            "className": "col-8 offset-4 col-lg-3 offset-lg-3 order-4 order-lg-5 mt-n2 mt-lg-0"
          }
        },
        {
          "name": "groupTextInline_dmmTableCommentArea",
          "layoutProps": {
            "className": "col-8 offset-4 col-lg offset-lg-0 order-6"
          },
          "options": {
            "lineTruncate": 1
          }
        }
      ]
    },
    {
      "name": "change-pricing-method-details",
      "layout": {
        "name": "DynamicBootstrapGridLayout"
      },
      "fields": [
        {
          "name": "groupTextInline_name",
          "layoutProps": {
            "className": "col-10"
          }
        },
        {
          "name": "badgeGroupTextInline_versionCreating",
          "layoutProps": {
            "className": "col-2 d-flex justify-content-end align-items-center"
          }
        },
        {
          "name": "groupTextInline_modeledFrom",
          "label": "Modeled From",
          "layoutProps": {
            "className": "col-6"
          },
          "options": {
            "inline": false
          }
        },
        {
          "name": "groupTextInline_methodType",
          "label": "Service/Subject/Section",
          "layoutProps": {
            "className": "col-6"
          },
          "options": {
            "inline": false,
            "format": "methodType"
          }
        },
        {
          "name": "groupTextInline_parametersUpdated",
          "layoutProps": {
            "className": "col-6"
          },
          "label": "Parameters Updated",
          "options": {
            "inline": false
          }
        }
      ]
    },
    {
      "name": "change-dmm-tables-details-snapshot",
      "layout": {
        "name": "DynamicBootstrapGridLayout"
      },
      "fields": [
        {
          "name": "groupTextInline_dmmTableName",
          "layoutProps": {
            "className": "col-10 mt-n4"
          }
        },
        {
          "name": "badgeGroup_status",
          "layoutProps": {
            "className": "col-2 text-right"
          }
        },
        {
          "name": "groupTextInline_dmmTableId",
          "label": "Table ID",
          "layoutProps": {
            "className": "col-6"
          },
          "options": {
            "inline": false
          }
        },
        {
          "name": "groupTextInline_dmmTableType",
          "label": "Table Type",
          "layoutProps": {
            "className": "col-6"
          },
          "options": {
            "inline": false
          }
        },
        {
          "name": "groupTextInline_modeledFrom",
          "label": "Modeled From",
          "layoutProps": {
            "className": "col-6"
          },
          "options": {
            "inline": false
          }
        },
        {
          "name": "groupTextInline_newVersionOf",
          "label": "New Version Of",
          "layoutProps": {
            "className": "col-6"
          },
          "options": {
            "inline": false
          }
        },
        {
          "name": "groupTextInline_dmmTableNumberOfDecision",
          "label": "Number of Decision Elements",
          "layoutProps": {
            "className": "col-6"
          },
          "options": {
            "inline": false
          }
        },
        {
          "name": "groupTextInline_dmmTableCommentArea",
          "label": "Comment Area",
          "layoutProps": {
            "className": "col-12"
          },
          "options": {
            "inline": false,
            "lineTruncate": 2,
            "ellipsisMoreText": "more",
            "ellipsisLessText": "less"
          }
        },
        {
          "name": "groupText_allocationDate",
          "layoutProps": {
            "className": "col-6"
          }
        },
        {
          "name": "groupText_allocationFlag",
          "layoutProps": {
            "className": "col-6"
          }
        },
        {
          "name": "groupText_allocationInterval",
          "layoutProps": {
            "className": "col-6"
          }
        },
        {
          "name": "groupText_allocationBACycle",
          "layoutProps": {
            "className": "col-6"
          }
        },
        {
          "name": "groupText_defaultStrategy",
          "layoutProps": {
            "className": "col-6"
          }
        },
        {
          "name": "groupText_changeCode",
          "layoutProps": {
            "className": "col-6"
          }
        },
        {
          "name": "groupText_ssAreas",
          "layoutProps": {
            "className": "col-6"
          }
        },
        {
          "name": "groupText_citMethodFlag",
          "layoutProps": {
            "className": "col-6"
          }
        },
        {
          "name": "groupText_nextDebitDate",
          "layoutProps": {
            "className": "col-6"
          }
        },
        {
          "name": "groupText_inclActivityOption",
          "layoutProps": {
            "className": "col-6"
          }
        },
        {
          "name": "groupText_posPromoValidation",
          "layoutProps": {
            "className": "col-6"
          }
        }
      ]
    },
    {
      "name": "decision-element-changes-updated",
      "layout": {
        "name": "DynamicBootstrapGridLayout",
        "layoutOptions": {
          "className": ""
        }
      },
      "fields": [
        {
          "name": "groupText_numberOfDecisionElementsAdded",
          "layoutProps": {
            "className": "col-6"
          }
        },
        {
          "name": "groupText_numberOfDecicionElementsDeleted",
          "layoutProps": {
            "className": "col-6"
          }
        },
        {
          "name": "groupText_numberOfRows",
          "layoutProps": {
            "className": "col-6"
          }
        },
        {
          "name": "groupText_numberOfRowsAdded",
          "layoutProps": {
            "className": "col-6"
          }
        },
        {
          "name": "groupText_numberOfRowsDeleted",
          "layoutProps": {
            "className": "col-6"
          }
        }
      ]
    },
    {
      "name": "decision-element-changes-created",
      "layout": {
        "name": "DynamicBootstrapGridLayout",
        "layoutOptions": {
          "className": ""
        }
      },
      "fields": [
        {
          "name": "groupText_numberOfRows",
          "layoutProps": {
            "className": "col-6"
          }
        }
      ]
    },
    {
      "name": "change-pricing-method-details-with-strategies",
      "layout": {
        "name": "BootstrapGridLayout",
        "layoutOptions": {
          "className": ""
        }
      },
      "fields": [
        {
          "name": "groupTextInline_name",
          "layoutProps": {
            "className": " col-10"
          }
        },
        {
          "name": "badgeGroupTextInline_versionCreating",
          "layoutProps": {
            "className": "col-2 d-flex justify-content-end align-items-center"
          }
        },
        {
          "name": "groupText_newVersionOf",
          "layoutProps": {
            "className": "col-6"
          },
          "options": {
            "inline": false
          }
        },
        {
          "name": "groupTextInline_methodType",
          "label": "Service/Subject/Section",
          "layoutProps": {
            "className": "col-6"
          },
          "options": {
            "inline": false,
            "format": "methodType"
          }
        },
        {
          "name": "groupText_strategiesImpacted",
          "layoutProps": {
            "className": "col-6"
          },
          "options": {
            "inline": false
          }
        },
        {
          "name": "groupTextInline_parametersUpdated",
          "layoutProps": {
            "className": "col-6"
          },
          "label": "Parameters Updated",
          "options": {
            "inline": false
          }
        }
      ]
    },
    {
      "name": "change-rejection-note",
      "layout": {
        "name": "DynamicBootstrapGridLayout",
        "layoutOptions": {
          "className": ""
        }
      },
      "fields": [
        {
          "name": "bubbleGroupText_rejectedBy",
          "layoutProps": {
            "className": "col-12"
          },
          "options": {
            "inline": false
          }
        },
        {
          "name": "groupText_rejectedReason",
          "layoutProps": {
            "className": "col-12"
          },
          "options": {
            "inline": false,
            "valueClass": "pre-line",
            "truncate": false
          }
        }
      ]
    },
    {
      "name": "method-card-view-header-RC",
      "layout": {
        "name": "DynamicBootstrapGridLayout",
        "layoutOptions": {
          "className": ""
        }
      },
      "fields": [
        {
          "name": "groupTextInline_name",
          "layoutProps": {
            "className": "col-5 mt-n2"
          },
          "options": {
            "valueClass": "pl-36",
            "format": "heading"
          }
        },
        {
          "name": "groupTextInline_relatedPricingStrategies",
          "layoutProps": {
            "className": "col"
          },
          "options": {
            "serviceSubjectSection": "CP PF RC",
            "zeroAsEmpty": true,
            "truncate": false,
            "actionName": "openStrategyFlyout"
          }
        },
        {
          "name": "groupTextInline_numberOfVersions",
          "layoutProps": {
            "className": "col text-right"
          }
        }
      ]
    },
    {
      "name": "method-card-view-header-DLO",
      "layout": {
        "name": "DynamicBootstrapGridLayout",
        "layoutOptions": {
          "className": ""
        }
      },
      "fields": [
        {
          "name": "groupTextInline_name",
          "layoutProps": {
            "className": "col-5 mt-n2"
          },
          "options": {
            "valueClass": "pl-36",
            "format": "heading"
          }
        },
        {
          "name": "groupTextInline_numberOfVersions",
          "layoutProps": {
            "className": "col text-right"
          }
        }
      ]
    },
    {
      "name": "method-card-view-header-CIT",
      "layout": {
        "name": "DynamicBootstrapGridLayout",
        "layoutOptions": {
          "className": ""
        }
      },
      "fields": [
        {
          "name": "groupTextInline_name",
          "layoutProps": {
            "className": "col-5 mt-n2"
          },
          "options": {
            "valueClass": "pl-36",
            "format": "heading"
          }
        },
        {
          "name": "groupTextInline_relatedPricingStrategies",
          "layoutProps": {
            "className": "col"
          },
          "options": {
            "serviceSubjectSection": "CP PB CT",
            "zeroAsEmpty": true,
            "truncate": false,
            "actionName": "openStrategyFlyout"
          }
        },
        {
          "name": "groupTextInline_numberOfVersions",
          "layoutProps": {
            "className": "col text-right"
          }
        }
      ]
    },
    {
      "name": "method-card-view-header-PBA",
      "layout": {
        "name": "DynamicBootstrapGridLayout",
        "layoutOptions": {
          "className": ""
        }
      },
      "fields": [
        {
          "name": "groupTextInline_name",
          "layoutProps": {
            "className": "col-5 mt-n2"
          },
          "options": {
            "valueClass": "pl-36",
            "format": "heading"
          }
        },
        {
          "name": "groupTextInline_relatedPricingStrategies",
          "layoutProps": {
            "className": "col"
          },
          "options": {
            "serviceSubjectSection": "CP IO MC",
            "zeroAsEmpty": true,
            "truncate": false,
            "actionName": "openStrategyFlyout"
          }
        },
        {
          "name": "groupTextInline_numberOfVersions",
          "layoutProps": {
            "className": "col text-right"
          }
        }
      ]
    },
    {
      "name": "method-card-view-header-UIR",
      "layout": {
        "name": "DynamicBootstrapGridLayout",
        "layoutOptions": {
          "className": ""
        }
      },
      "fields": [
        {
          "name": "groupTextInline_name",
          "layoutProps": {
            "className": "col-5 mt-n2"
          },
          "options": {
            "valueClass": "pl-36",
            "format": "heading"
          }
        },
        {
          "name": "groupTextInline_relatedPricingStrategies",
          "layoutProps": {
            "className": "col"
          },
          "options": {
            "serviceSubjectSection": "CP IC IR",
            "zeroAsEmpty": true,
            "truncate": false,
            "actionName": "openStrategyFlyout"
          }
        },
        {
          "name": "groupTextInline_numberOfVersions",
          "layoutProps": {
            "className": "col text-right"
          }
        }
      ]
    },
    {
      "name": "method-card-view-header-PEM",
      "layout": {
        "name": "DynamicBootstrapGridLayout",
        "layoutOptions": {
          "className": ""
        }
      },
      "fields": [
        {
          "name": "groupTextInline_name",
          "layoutProps": {
            "className": "col-5 mt-n2"
          },
          "options": {
            "valueClass": "pl-36",
            "format": "heading"
          }
        },
        {
          "name": "groupTextInline_relatedPricingStrategies",
          "layoutProps": {
            "className": "col"
          },
          "options": {
            "serviceSubjectSection": "CP IC PE",
            "zeroAsEmpty": true,
            "truncate": false,
            "actionName": "openStrategyFlyout"
          }
        },
        {
          "name": "groupTextInline_numberOfVersions",
          "layoutProps": {
            "className": "col text-right"
          }
        }
      ]
    },
    {
      "name": "method-card-view-header-MSPS",
      "layout": {
        "name": "DynamicBootstrapGridLayout",
        "layoutOptions": {
          "className": ""
        }
      },
      "fields": [
        {
          "name": "groupTextInline_name",
          "layoutProps": {
            "className": "col-5 mt-n2"
          },
          "options": {
            "valueClass": "pl-36",
            "format": "heading"
          }
        },
        {
          "name": "groupTextInline_relatedPricingStrategies",
          "layoutProps": {
            "className": "col"
          },
          "options": {
            "serviceSubjectSection": "CP IC SP",
            "zeroAsEmpty": true,
            "truncate": false,
            "actionName": "openStrategyFlyout"
          }
        },
        {
          "name": "groupTextInline_numberOfVersions",
          "layoutProps": {
            "className": "col text-right"
          }
        }
      ]
    },
    {
      "name": "method-card-view-header-LC",
      "layout": {
        "name": "DynamicBootstrapGridLayout",
        "layoutOptions": {
          "className": ""
        }
      },
      "fields": [
        {
          "name": "groupTextInline_name",
          "layoutProps": {
            "className": "col-5 mt-n2"
          },
          "options": {
            "valueClass": "pl-36",
            "format": "heading"
          }
        },
        {
          "name": "groupTextInline_relatedPricingStrategies",
          "layoutProps": {
            "className": "col"
          },
          "options": {
            "serviceSubjectSection": "CP PF LC",
            "zeroAsEmpty": true,
            "truncate": false,
            "actionName": "openStrategyFlyout"
          }
        },
        {
          "name": "groupTextInline_numberOfVersions",
          "layoutProps": {
            "className": "col text-right"
          }
        }
      ]
    },
    {
      "name": "method-card-view-header-CPICID",
      "layout": {
        "name": "DynamicBootstrapGridLayout",
        "layoutOptions": {
          "className": ""
        }
      },
      "fields": [
        {
          "name": "groupTextInline_name",
          "layoutProps": {
            "className": "col-4 mt-n2"
          },
          "options": {
            "valueClass": "pl-36",
            "format": "heading"
          }
        },
        {
          "name": "groupTextInline_relatedPricingStrategies",
          "layoutProps": {
            "className": "col-4"
          },
          "options": {
            "serviceSubjectSection": "CP IC ID",
            "zeroAsEmpty": true,
            "truncate": false,
            "actionName": "openStrategyFlyout"
          }
        },
        {
          "name": "groupTextInline_numberOfVersions",
          "layoutProps": {
            "className": "col-4 text-right"
          }
        }
      ]
    },
    {
      "name": "method-card-view-header-CPICIP",
      "layout": {
        "name": "DynamicBootstrapGridLayout",
        "layoutOptions": {
          "className": ""
        }
      },
      "fields": [
        {
          "name": "groupTextInline_name",
          "layoutProps": {
            "className": "col-4 mt-n2"
          },
          "options": {
            "valueClass": "pl-36",
            "format": "heading"
          }
        },
        {
          "name": "groupTextInline_relatedPricingStrategies",
          "layoutProps": {
            "className": "col-4"
          },
          "options": {
            "serviceSubjectSection": "CP IC IP",
            "zeroAsEmpty": true,
            "truncate": false,
            "actionName": "openStrategyFlyout"
          }
        },
        {
          "name": "groupTextInline_numberOfVersions",
          "layoutProps": {
            "className": "col-4 text-right"
          }
        }
      ]
    },
    {
      "name": "method-card-view-header-CPICIM",
      "layout": {
        "name": "DynamicBootstrapGridLayout",
        "layoutOptions": {
          "className": ""
        }
      },
      "fields": [
        {
          "name": "groupTextInline_name",
          "layoutProps": {
            "className": "col-4 mt-n2"
          },
          "options": {
            "valueClass": "pl-36",
            "format": "heading"
          }
        },
        {
          "name": "groupTextInline_relatedPricingStrategies",
          "layoutProps": {
            "className": "col-4"
          },
          "options": {
            "serviceSubjectSection": "CP IC IM",
            "zeroAsEmpty": true,
            "truncate": false,
            "actionName": "openStrategyFlyout"
          }
        },
        {
          "name": "groupTextInline_numberOfVersions",
          "layoutProps": {
            "className": "col-4 text-right"
          }
        }
      ]
    },
    {
      "name": "method-card-view",
      "layout": {
        "name": "DynamicBootstrapGridLayout",
        "layoutOptions": {
          "className": ""
        }
      },
      "fields": [
        {
          "name": "groupTextInline_effectiveDate",
          "layoutProps": {
            "className": "col-6 col-lg-4 ml-40 mt-n4"
          }
        },
        {
          "name": "badgeGroupTextInline_status",
          "layoutProps": {
            "className": "col text-right mt-n2"
          },
          "options": {
            "colorType": "changeStatus"
          }
        }
      ]
    },
    {
      "name": "method-card-view-extend",
      "layout": {
        "name": "DynamicBootstrapGridLayout",
        "layoutOptions": {
          "className": ""
        }
      },
      "fields": [
        {
          "name": "groupTextInline_effectiveDate",
          "layoutProps": {
            "className": "col-4 col-lg-3 ml-40 mt-n4"
          }
        },
        {
          "name": "groupText_comment",
          "layoutProps": {
            "className": "col-5 col-lg-6 mt-n4"
          }
        },
        {
          "name": "badgeGroupTextInline_status",
          "layoutProps": {
            "className": "col text-right mt-n2"
          },
          "options": {
            "colorType": "changeStatus"
          }
        }
      ]
    },
    {
      "name": "manage-penalty-fee-rcc-sub-grid",
      "layout": {
        "name": "BootstrapGridLayout",
        "layoutOptions": {
          "className": ""
        }
      },
      "fields": [
        {
          "name": "label_h5_methodInformation",
          "layoutProps": {
            "className": "col-12"
          }
        },
        {
          "name": "label_h5_assessmentCalculation",
          "layoutProps": {
            "className": "col-12 mt-16"
          }
        },
        {
          "name": "groupText_returnedCheckChargesOption",
          "layoutProps": {
            "className": "col-4"
          }
        },
        {
          "name": "groupText_amountAssessed",
          "layoutProps": {
            "className": "col-8"
          }
        },
        {
          "name": "groupText_minimumPayDueOptions",
          "layoutProps": {
            "className": "col-4"
          }
        },
        {
          "name": "groupText_oneFeeParticipationCode",
          "layoutProps": {
            "className": "col-8"
          }
        },
        {
          "name": "label_advancedSettings",
          "layoutProps": {
            "className": "col-12 mt-24"
          }
        },
        {
          "name": "groupText_batchIdentification",
          "layoutProps": {
            "className": "col-4"
          }
        },
        {
          "name": "groupText_computerLetter",
          "layoutProps": {
            "className": "col-4"
          }
        },

        {
          "name": "groupText_postingTextID",
          "layoutProps": {
            "className": "col-4"
          }
        },
        {
          "name": "groupText_reversalTextID",
          "layoutProps": {
            "className": "col-4"
          }
        },
        {
          "name": "groupText_maxManagement",
          "layoutProps": {
            "className": "col-4"
          }
        },
        {
          "name": "groupText_oneFeePriorityCode",
          "layoutProps": {
            "className": "col-4"
          }
        }
      ]
    },
    {
      "name": "manage-penalty-fee-lc-sub-grid",
      "layout": {
        "name": "DynamicBootstrapGridLayout",
        "layoutOptions": {
          "className": ""
        }
      },
      "fields": [
        {
          "name": "label_h5_methodInformation",
          "layoutProps": {
            "className": "col-12"
          }
        },
        {
          "name": "label_h5_assessmentCalculation",
          "layoutProps": {
            "className": "col-12 mt-16"
          }
        },
        {
          "name": "groupText_lateChargesOption",
          "layoutProps": {
            "className": "col-4"
          }
        },
        {
          "name": "groupText_CalculationBase",
          "layoutProps": {
            "className": "col-4"
          }
        },
        {
          "name": "groupText_minimumPayDueOptions",
          "layoutProps": {
            "className": "col-4"
          }
        },
        {
          "name": "groupText_minimumOrFixedAmount",
          "layoutProps": {
            "className": "col-4"
          }
        },
        {
          "name": "groupText_percent",
          "layoutProps": {
            "className": "col-4"
          }
        },
        {
          "name": "groupText_maximumAmount",
          "layoutProps": {
            "className": "col-4"
          }
        },
        {
          "name": "groupText_maximumYearlyAmount",
          "layoutProps": {
            "className": "col-4"
          }
        },
        {
          "name": "label_h6_assessmentControls",
          "layoutProps": {
            "className": "col-12 mt-24"
          }
        },
        {
          "name": "groupText_assessmentControl",
          "layoutProps": {
            "className": "col-4"
          }
        },
        {
          "name": "groupText_cyclesOfConsecutiveDelinquency",
          "layoutProps": {
            "className": "col-4"
          }
        },
        {
          "name": "groupText_balanceIndicator",
          "layoutProps": {
            "className": "col-4"
          }
        },
        {
          "name": "groupText_assessedAccounts",
          "layoutProps": {
            "className": "col-4"
          }
        },
        {
          "name": "groupText_exclusionBalance",
          "layoutProps": {
            "className": "col-4"
          }
        },
        {
          "name": "groupText_currentBalanceAssessment",
          "layoutProps": {
            "className": "col-4"
          }
        },
        {
          "name": "groupText_calculationDayControl",
          "layoutProps": {
            "className": "col-4"
          }
        },
        {
          "name": "groupText_numberOfDays",
          "layoutProps": {
            "className": "col-4"
          }
        },
        {
          "name": "groupText_nonProcessingLateCharge",
          "layoutProps": {
            "className": "col-4"
          }
        },
        {
          "name": "label_h6_externalStatusQualification",
          "layoutProps": {
            "className": "col-12 mt-24"
          }
        },
        {
          "name": "groupText_includeExcludeControl",
          "layoutProps": {
            "className": "col-4"
          }
        },
        {
          "name": "groupText_status1",
          "layoutProps": {
            "className": "col-4"
          }
        },
        {
          "name": "groupText_status2",
          "layoutProps": {
            "className": "col-4"
          }
        },
        {
          "name": "groupText_status3",
          "layoutProps": {
            "className": "col-4"
          }
        },
        {
          "name": "groupText_status4",
          "layoutProps": {
            "className": "col-4"
          }
        },
        {
          "name": "groupText_status5",
          "layoutProps": {
            "className": "col-4"
          }
        },
        {
          "name": "label_advancedSettings",
          "layoutProps": {
            "className": "col-12 mt-24"
          }
        },
        {
          "name": "label_h6_assessmentCalculation",
          "layoutProps": {
            "className": "col-12 mt-16"
          }
        },
        {
          "name": "groupText_tier2Balance",
          "layoutProps": {
            "className": "col-4"
          }
        },
        {
          "name": "groupText_tier2Amount",
          "layoutProps": {
            "className": "col-4"
          }
        },
        {
          "name": "groupText_tier3Balance",
          "layoutProps": {
            "className": "col-4"
          }
        },
        {
          "name": "groupText_tier3Amount",
          "layoutProps": {
            "className": "col-4"
          }
        },
        {
          "name": "groupText_tier4Balance",
          "layoutProps": {
            "className": "col-4"
          }
        },
        {
          "name": "groupText_tier4Amount",
          "layoutProps": {
            "className": "col-4"
          }
        },
        {
          "name": "groupText_tier5Balance",
          "layoutProps": {
            "className": "col-4"
          }
        },
        {
          "name": "groupText_tier5Amount",
          "layoutProps": {
            "className": "col-4"
          }
        },

        {
          "name": "label_h6_assessmentControls",
          "layoutProps": {
            "className": "col-12 mt-24"
          }
        },
        {
          "name": "groupText_thresholdToWaiveLateCharge",
          "layoutProps": {
            "className": "col-4"
          }
        },
        {
          "name": "groupText_lateChargeResetCounter",
          "layoutProps": {
            "className": "col-4"
          }
        },
        {
          "name": "label_h6_statementMessaging",
          "layoutProps": {
            "className": "col-12 mt-24"
          }
        },
        {
          "name": "groupText_reversalDetailsTextID",
          "layoutProps": {
            "className": "col-4"
          }
        },
        {
          "name": "groupText_waivedMessageTextID",
          "layoutProps": {
            "className": "col-4"
          }
        },
        {
          "name": "groupText_latePaymentWarningMessage",
          "layoutProps": {
            "className": "col-4"
          }
        }
      ]
    },
    {
      "name": "send-letter-configure-parameters",
      "layout": {
        "name": "DynamicBootstrapGridLayout",
        "layoutOptions": {
          "className": ""
        }
      },
      "fields": [
        {
          "name": "groupText_send_letter_letterNumber",
          "layoutProps": {
            "className": "col-lg-4 col-6"
          }
        },
        {
          "name": "groupText_send_letter_description",
          "layoutProps": {
            "className": "col-lg-4 col-6"
          }
        },
        {
          "name": "groupText_optionalNameAddressPermitted",
          "layoutProps": {
            "className": "col-lg-4 col-6"
          }
        },
        {
          "name": "groupText_variable_1",
          "layoutProps": {
            "className": "col-lg-4 col-6"
          }
        },
        {
          "name": "groupText_variable_2",
          "layoutProps": {
            "className": "col-lg-4 col-6"
          }
        },
        {
          "name": "groupText_variable_3",
          "layoutProps": {
            "className": "col-lg-4 col-6"
          }
        },
        {
          "name": "groupText_variable_4",
          "layoutProps": {
            "className": "col-lg-4 col-6"
          }
        },
        {
          "name": "groupText_variable_5",
          "layoutProps": {
            "className": "col-lg-4 col-6"
          }
        },
        {
          "name": "groupText_variable_6",
          "layoutProps": {
            "className": "col-lg-4 col-6"
          }
        },
        {
          "name": "groupText_variable_7",
          "layoutProps": {
            "className": "col-lg-4 col-6"
          }
        },
        {
          "name": "groupText_variable_8",
          "layoutProps": {
            "className": "col-lg-4 col-6"
          }
        },
        {
          "name": "groupText_variable_9",
          "layoutProps": {
            "className": "col-lg-4 col-6"
          }
        },
        {
          "name": "groupText_variable_10",
          "layoutProps": {
            "className": "col-lg-4 col-6"
          }
        }
      ]
    },
    {
      "name": "send-letter-configure-parameters-summary",
      "layout": {
        "name": "DynamicBootstrapGridLayout",
        "layoutOptions": {
          "className": ""
        }
      },
      "fields": [
        {
          "name": "groupText_send_letter_letterNumber",
          "layoutProps": {
            "className": "col-6 col-lg-4 col-xl-3"
          }
        },
        {
          "name": "groupText_send_letter_description",
          "layoutProps": {
            "className": "col-6 col-lg-4 col-xl-3"
          }
        },
        {
          "name": "groupText_optionalNameAddressPermitted",
          "layoutProps": {
            "className": "col-6 col-lg-4 col-xl-3"
          }
        },
        {
          "name": "groupText_variable_1",
          "layoutProps": {
            "className": "col-6 col-lg-4 col-xl-3"
          }
        },
        {
          "name": "groupText_variable_2",
          "layoutProps": {
            "className": "col-6 col-lg-4 col-xl-3"
          }
        },
        {
          "name": "groupText_variable_3",
          "layoutProps": {
            "className": "col-6 col-lg-4 col-xl-3"
          }
        },
        {
          "name": "groupText_variable_4",
          "layoutProps": {
            "className": "col-6 col-lg-4 col-xl-3"
          }
        },
        {
          "name": "groupText_variable_5",
          "layoutProps": {
            "className": "col-6 col-lg-4 col-xl-3"
          }
        },
        {
          "name": "groupText_variable_6",
          "layoutProps": {
            "className": "col-6 col-lg-4 col-xl-3"
          }
        },
        {
          "name": "groupText_variable_7",
          "layoutProps": {
            "className": "col-6 col-lg-4 col-xl-3"
          }
        },
        {
          "name": "groupText_variable_8",
          "layoutProps": {
            "className": "col-6 col-lg-4 col-xl-3"
          }
        },
        {
          "name": "groupText_variable_9",
          "layoutProps": {
            "className": "col-6 col-lg-4 col-xl-3"
          }
        },
        {
          "name": "groupText_variable_10",
          "layoutProps": {
            "className": "col-6 col-lg-4 col-xl-3"
          }
        },
        {
          "name": "groupText_send_letter_expansionAddressCode",
          "layoutProps": {
            "className": "col-6 col-lg-4 col-xl-3"
          }
        }
      ]
    },
    {
      "name": "table-card-view-header",
      "layout": {
        "name": "DynamicBootstrapGridLayout",
        "layoutOptions": {
          "className": ""
        }
      },
      "fields": [
        {
          "name": "groupTextInline_subName",
          "layoutProps": {
            "className": "col-3 mt-n4 ml-36"
          },
          "label": "Table ID:"
        },
        {
          "name": "groupTextInline_numberOfVersions",
          "layoutProps": {
            "className": "col text-right mt-n4"
          }
        }
      ]
    },
    {
      "name": "kpi-template-card-view",
      "layout": {
        "name": "DynamicBootstrapGridLayout",
        "layoutOptions": {
          "className": "flex-1"
        }
      },
      "fields": [
        {
          "name": "heading5_name",
          "layoutProps": {
            "className": "col"
          },
          "truncate": true
        },
        {
          "name": "button_selectKpi",
          "layoutProps": {
            "className": "col-auto pl-0 mr-n8 mt-n2"
          }
        },
        {
          "name": "divider",
          "layoutProps": {
            "className": "flex-break-row overflow-hidden"
          },
          "label": ""
        },
        {
          "name": "groupTextInline_subjectArea",
          "layoutProps": {
            "className": "col-6"
          },
          "label": "Subject Area:",
          "options": {}
        },
        {
          "name": "groupTextInline_submetric",
          "layoutProps": {
            "className": "col-6"
          },
          "label": "Submetric:",
          "options": {}
        }
      ]
    },
    {
      "name": "method-card-view-header-CIA",
      "layout": {
        "name": "DynamicBootstrapGridLayout",
        "layoutOptions": {
          "className": ""
        }
      },
      "fields": [
        {
          "name": "groupTextInline_name",
          "layoutProps": {
            "className": "col-4 mt-n2"
          },
          "options": {
            "valueClass": "pl-36",
            "format": "heading"
          }
        },
        {
          "name": "groupTextInline_relatedPricingStrategies",
          "layoutProps": {
            "className": "col-4"
          },
          "options": {
            "serviceSubjectSection": "CP IO AC",
            "zeroAsEmpty": true,
            "truncate": false,
            "actionName": "openStrategyFlyout"
          }
        },
        {
          "name": "groupTextInline_numberOfVersions",
          "layoutProps": {
            "className": "col-4 text-right"
          }
        }
      ]
    }
  ]
}
